<svg xmlns="http://www.w3.org/2000/svg" width="1273.745" height="1053.553" viewBox="0 0 1273.745 1053.553">
  <path id="Path_21" data-name="Path 21" d="M1755.745,515.2v878.013c-14.778,10.965-29.85,21.245-45.117,30.546-193.582,118.563-335.49,154-545.611,143.137-210.024-10.867-355.944-184.943-408.695-309.282-52.751-124.242-10.668-331.017-83.481-457.706C626.355,719.038,528.781,625.343,482,515.2Z" transform="translate(-482 -515.2)" fill="#f0f9fc"/>
</svg>
